6
noslip    imin      0.0    0.0   0.0    1.0   -1.0    1.0
0.0 0.0 0.0
noslip    imax      0.0    0.0   0.0    1.0   -1.0    1.0
0.0 0.0 0.0
noslip    jmin      0.0    1.0   0.0    0.0   -1.0    1.0
0.0 0.0 0.0
noslip    jmax      0.0    1.0   0.0    0.0   -1.0    1.0
1.0 0.0 0.0
periodic  kmin      0.0    1.0   0.0    1.0    0.0    0.0
periodic  kmax      0.0    1.0   0.0    1.0    0.0    0.0
